"Id";"Designator";"Package";"Quantity";"Designation";"Supplier and ref";
1;"V1";"USB_A_Molex_105057_Vertical";1;"ac sin(0 230 50 0 0 0) dc 0";;;
2;"UD1";"LED_D3.0mm_Clear";1;"LED";;;
3;"U3";"SOT-23-5";1;"LT6015xS5";;;
4;"U2";"DIP-10_W7.62mm_LongPads";1;"LTC2996C";;;
5;"U1";"DIP-8_W7.62mm_SMDSocket_SmallPads";1;"LT3505";;;
6;"R12";"R_Axial_DIN0204_L3.6mm_D1.6mm_P1.90mm_Vertical";1;"100k";;;
7;"R11";"R_Axial_DIN0204_L3.6mm_D1.6mm_P1.90mm_Vertical";1;"51.5k";;;
8;"R10";"R_Axial_DIN0204_L3.6mm_D1.6mm_P1.90mm_Vertical";1;"102k";;;
9;"R9";"R_Axial_DIN0204_L3.6mm_D1.6mm_P1.90mm_Vertical";1;"36k";;;
10;"R8";"R_Axial_DIN0204_L3.6mm_D1.6mm_P1.90mm_Vertical";1;"43k";;;
11;"R7,R6,R5";"R_Axial_DIN0204_L3.6mm_D1.6mm_P1.90mm_Vertical";3;"220";;;
12;"R4";"R_Axial_DIN0204_L3.6mm_D1.6mm_P1.90mm_Vertical";1;"11.3K";;;
13;"R3";"R_Axial_DIN0204_L3.6mm_D1.6mm_P1.90mm_Vertical";1;"61.9K";;;
14;"R2";"R_Axial_DIN0204_L3.6mm_D1.6mm_P1.90mm_Vertical";1;"R_US";;;
15;"R1";"R_Axial_DIN0204_L3.6mm_D1.6mm_P1.90mm_Vertical";1;"20.5K";;;
16;"Q1";"TO-92_Inline";1;"2N3904";;;
17;"OD1,ID1";"D_5W_P10.16mm_Horizontal";2;"LED";;;
18;"L1";"L_Axial_L11.0mm_D4.5mm_P5.08mm_Vertical_Fastron_MECC";1;"6.3uH";;;
19;"D6";"D_SOD-523";1;"1N914WT";;;
20;"D5";"D_DO-41_SOD81_P2.54mm_Vertical_AnodeUp";1;"1N5819";;;
21;"D4,D3,D2,D1";"D_DO-41_SOD81_P2.54mm_Vertical_AnodeUp";4;"1N4004";;;
22;"C8";"CP_Radial_D4.0mm_P1.50mm";1;"470p";;;
23;"C7,C1";"CP_Radial_D4.0mm_P1.50mm";2;"10uF";;;
24;"C6";"CP_Radial_D4.0mm_P1.50mm";1;"68pF";;;
25;"C5";"CP_Radial_D4.0mm_P1.50mm";1;"0.1uF";;;
26;"C4";"CP_Radial_D4.0mm_P1.50mm";1;"47pF";;;
27;"C3";"CP_Radial_D4.0mm_P1.50mm";1;"4.7pF";;;
28;"C2";"CP_Radial_D4.0mm_P1.50mm";1;"1uF";;;
29;"BUT1,BOT1";"MagneticBuzzer_Kingstate_KCG0601";2;"Buzzer";;;
30;"J1";"PinSocket_2x20_P2.54mm_Vertical_Centered_Anchor";1;"GPIO_CONNECTOR";;;
31;"H1,H2,H3,H4";"MountingHole_2.7mm_M2.5_uHAT_RPi";4;"MountingHole";;;
