EESchema Schematic File Version 4
EELAYER 30 0
EELAYER END
$Descr A4 11693 8268
encoding utf-8
Sheet 1 1
Title "Power Supply"
Date "2021-06-04"
Rev "1"
Comp "Group 33"
Comment1 "Created by Flourish Oluwamakinde (OLWTOL002)"
Comment2 ""
Comment3 ""
Comment4 ""
$EndDescr
Wire Wire Line
	3850 3050 3900 3050
Wire Wire Line
	3950 2600 3900 2600
Wire Wire Line
	3550 2600 3450 2600
Wire Wire Line
	3450 2600 3450 2800
Wire Wire Line
	3450 3050 3550 3050
Wire Wire Line
	4250 3050 4400 3050
Wire Wire Line
	4400 2600 4250 2600
Wire Wire Line
	3450 2800 3200 2800
Connection ~ 3450 2800
Wire Wire Line
	3450 2800 3450 3050
$Comp
L Device:CP C1
U 1 1 60BACFC9
P 4800 3150
F 0 "C1" H 4918 3196 50  0000 L CNN
F 1 "10uF" H 4918 3105 50  0000 L CNN
F 2 "" H 4838 3000 50  0001 C CNN
F 3 "~" H 4800 3150 50  0001 C CNN
	1    4800 3150
	1    0    0    -1  
$EndComp
Wire Wire Line
	4400 2600 4400 2800
Wire Wire Line
	4800 2800 4800 3000
Connection ~ 4400 2800
Wire Wire Line
	4400 2800 4400 3050
Wire Wire Line
	4800 3300 4800 3500
Wire Wire Line
	3200 2800 3200 3500
Connection ~ 4800 3500
Wire Wire Line
	4800 3500 4800 3650
$Comp
L power:GND #PWR?
U 1 1 60BAE545
P 4800 3650
F 0 "#PWR?" H 4800 3400 50  0001 C CNN
F 1 "GND" H 4805 3477 50  0000 C CNN
F 2 "" H 4800 3650 50  0001 C CNN
F 3 "" H 4800 3650 50  0001 C CNN
	1    4800 3650
	1    0    0    -1  
$EndComp
$Comp
L Device:Transformer_1P_1S T1
U 1 1 60BAF198
P 2250 2800
F 0 "T1" H 2250 3181 50  0000 C CNN
F 1 "Transformer_1P_1S" H 2250 3090 50  0000 C CNN
F 2 "" H 2250 2800 50  0001 C CNN
F 3 "~" H 2250 2800 50  0001 C CNN
	1    2250 2800
	1    0    0    -1  
$EndComp
Wire Wire Line
	2650 2600 2650 2150
Wire Wire Line
	2650 2150 3900 2150
Wire Wire Line
	3900 2150 3900 2600
Connection ~ 3900 2600
Wire Wire Line
	3900 2600 3850 2600
Wire Wire Line
	2650 3000 2650 3250
Wire Wire Line
	2650 3250 3900 3250
Wire Wire Line
	3900 3250 3900 3050
Connection ~ 3900 3050
Wire Wire Line
	3900 3050 3950 3050
Wire Wire Line
	1850 3000 1800 3000
Wire Wire Line
	1800 3000 1800 3150
$Comp
L power:GND #PWR?
U 1 1 60BB3607
P 1800 3150
F 0 "#PWR?" H 1800 2900 50  0001 C CNN
F 1 "GND" H 1805 2977 50  0000 C CNN
F 2 "" H 1800 3150 50  0001 C CNN
F 3 "" H 1800 3150 50  0001 C CNN
	1    1800 3150
	1    0    0    -1  
$EndComp
Wire Wire Line
	1850 2600 1700 2600
$Comp
L Device:CP C2
U 1 1 60BB213E
P 5250 3150
F 0 "C2" H 5368 3196 50  0000 L CNN
F 1 "1uF" H 5368 3105 50  0000 L CNN
F 2 "" H 5288 3000 50  0001 C CNN
F 3 "~" H 5250 3150 50  0001 C CNN
	1    5250 3150
	1    0    0    -1  
$EndComp
Connection ~ 4800 2800
Wire Wire Line
	5250 3000 5250 2800
Connection ~ 5250 2800
Wire Wire Line
	5800 2950 5600 2950
Wire Wire Line
	5600 2950 5600 2800
Wire Wire Line
	5600 2800 5800 2800
Wire Wire Line
	5250 3300 5250 3500
Wire Wire Line
	5250 3500 4800 3500
$Comp
L Device:R_US R1
U 1 1 60BB53B3
P 5600 3300
F 0 "R1" H 5668 3346 50  0000 L CNN
F 1 "20.5K" H 5668 3255 50  0000 L CNN
F 2 "" V 5640 3290 50  0001 C CNN
F 3 "~" H 5600 3300 50  0001 C CNN
	1    5600 3300
	1    0    0    -1  
$EndComp
Connection ~ 5250 3500
Wire Wire Line
	5600 3450 5600 3500
Wire Wire Line
	5800 3100 5600 3100
Wire Wire Line
	5600 3100 5600 3150
$Comp
L power:GND #PWR?
U 1 1 60BB8955
P 6250 3350
F 0 "#PWR?" H 6250 3100 50  0001 C CNN
F 1 "GND" H 6255 3177 50  0000 C CNN
F 2 "" H 6250 3350 50  0001 C CNN
F 3 "" H 6250 3350 50  0001 C CNN
	1    6250 3350
	1    0    0    -1  
$EndComp
$Comp
L Device:L L
U 1 1 60BB916F
P 8050 3000
F 0 "L" V 8240 3000 50  0000 C CNN
F 1 "6.3uH" V 8149 3000 50  0000 C CNN
F 2 "" H 8050 3000 50  0001 C CNN
F 3 "~" H 8050 3000 50  0001 C CNN
	1    8050 3000
	0    -1   -1   0   
$EndComp
$Comp
L Diode:1N5819 D5
U 1 1 60BBA8C1
P 7450 3150
F 0 "D5" V 7404 3230 50  0000 L CNN
F 1 "1N5819" V 7495 3230 50  0000 L CNN
F 2 "Diode_THT:D_DO-41_SOD81_P10.16mm_Horizontal" H 7450 2975 50  0001 C CNN
F 3 "http://www.vishay.com/docs/88525/1n5817.pdf" H 7450 3150 50  0001 C CNN
	1    7450 3150
	0    1    1    0   
$EndComp
$Comp
L Diode:1N4004 D1
U 1 1 60BC25F6
P 3700 2600
F 0 "D1" H 3700 2383 50  0000 C CNN
F 1 "1N4004" H 3700 2474 50  0000 C CNN
F 2 "Diode_THT:D_DO-41_SOD81_P10.16mm_Horizontal" H 3700 2425 50  0001 C CNN
F 3 "http://www.vishay.com/docs/88503/1n4001.pdf" H 3700 2600 50  0001 C CNN
	1    3700 2600
	-1   0    0    1   
$EndComp
$Comp
L Diode:1N4004 D2
U 1 1 60BC4050
P 4100 2600
F 0 "D2" H 4100 2383 50  0000 C CNN
F 1 "1N4004" H 4100 2474 50  0000 C CNN
F 2 "Diode_THT:D_DO-41_SOD81_P10.16mm_Horizontal" H 4100 2425 50  0001 C CNN
F 3 "http://www.vishay.com/docs/88503/1n4001.pdf" H 4100 2600 50  0001 C CNN
	1    4100 2600
	-1   0    0    1   
$EndComp
$Comp
L Diode:1N4004 D3
U 1 1 60BC43EF
P 3700 3050
F 0 "D3" H 3700 2833 50  0000 C CNN
F 1 "1N4004" H 3700 2924 50  0000 C CNN
F 2 "Diode_THT:D_DO-41_SOD81_P10.16mm_Horizontal" H 3700 2875 50  0001 C CNN
F 3 "http://www.vishay.com/docs/88503/1n4001.pdf" H 3700 3050 50  0001 C CNN
	1    3700 3050
	-1   0    0    1   
$EndComp
$Comp
L Diode:1N4004 D4
U 1 1 60BC4ADC
P 4100 3050
F 0 "D4" H 4100 2833 50  0000 C CNN
F 1 "1N4004" H 4100 2924 50  0000 C CNN
F 2 "Diode_THT:D_DO-41_SOD81_P10.16mm_Horizontal" H 4100 2875 50  0001 C CNN
F 3 "http://www.vishay.com/docs/88503/1n4001.pdf" H 4100 3050 50  0001 C CNN
	1    4100 3050
	-1   0    0    1   
$EndComp
$Comp
L Diode:1N914WT D6
U 1 1 60BC610F
P 8000 2550
F 0 "D6" H 8000 2767 50  0000 C CNN
F 1 "1N914WT" H 8000 2676 50  0000 C CNN
F 2 "Diode_SMD:D_SOD-523" H 8000 2375 50  0001 C CNN
F 3 "http://www.mouser.com/ds/2/149/1N4148WT-461550.pdf" H 8000 2550 50  0001 C CNN
	1    8000 2550
	1    0    0    -1  
$EndComp
Wire Wire Line
	7450 2700 7450 2550
$Comp
L power:GND #PWR?
U 1 1 60BC7F1B
P 7450 3300
F 0 "#PWR?" H 7450 3050 50  0001 C CNN
F 1 "GND" H 7455 3127 50  0000 C CNN
F 2 "" H 7450 3300 50  0001 C CNN
F 3 "" H 7450 3300 50  0001 C CNN
	1    7450 3300
	1    0    0    -1  
$EndComp
Wire Wire Line
	7250 2800 7250 3000
Wire Wire Line
	7250 3000 7450 3000
Connection ~ 7450 3000
$Comp
L Device:R_US R3
U 1 1 60BC99DE
P 8350 3150
F 0 "R3" H 8282 3104 50  0000 R CNN
F 1 "61.9K" H 8282 3195 50  0000 R CNN
F 2 "" V 8390 3140 50  0001 C CNN
F 3 "~" H 8350 3150 50  0001 C CNN
	1    8350 3150
	-1   0    0    1   
$EndComp
$Comp
L Device:R_US R4
U 1 1 60BCA329
P 8350 3450
F 0 "R4" H 8282 3404 50  0000 R CNN
F 1 "11.3K" H 8282 3495 50  0000 R CNN
F 2 "" V 8390 3440 50  0001 C CNN
F 3 "~" H 8350 3450 50  0001 C CNN
	1    8350 3450
	-1   0    0    1   
$EndComp
Wire Wire Line
	8150 2550 8350 2550
Wire Wire Line
	8350 2550 8350 3000
Wire Wire Line
	8200 3000 8350 3000
Connection ~ 8350 3000
$Comp
L power:GND #PWR?
U 1 1 60BCC28A
P 8350 3600
F 0 "#PWR?" H 8350 3350 50  0001 C CNN
F 1 "GND" H 8355 3427 50  0000 C CNN
F 2 "" H 8350 3600 50  0001 C CNN
F 3 "" H 8350 3600 50  0001 C CNN
	1    8350 3600
	1    0    0    -1  
$EndComp
Wire Wire Line
	8150 3550 8150 3300
Wire Wire Line
	8150 3300 8350 3300
Connection ~ 8350 3300
Wire Wire Line
	8850 3300 8350 3300
$Comp
L Device:R_US R2
U 1 1 60BD915B
P 6850 3500
F 0 "R2" V 6645 3500 50  0000 C CNN
F 1 "R_US" V 6736 3500 50  0000 C CNN
F 2 "" V 6890 3490 50  0001 C CNN
F 3 "~" H 6850 3500 50  0001 C CNN
	1    6850 3500
	0    1    1    0   
$EndComp
Wire Wire Line
	6700 3100 6700 3500
Wire Wire Line
	6500 3600 6500 3500
Wire Wire Line
	6500 3500 6700 3500
Connection ~ 6700 3500
Wire Wire Line
	7000 3500 7050 3500
Wire Wire Line
	7050 3500 7050 3600
$Comp
L power:GND #PWR?
U 1 1 60BFE9A5
P 6500 3900
F 0 "#PWR?" H 6500 3650 50  0001 C CNN
F 1 "GND" H 6505 3727 50  0000 C CNN
F 2 "" H 6500 3900 50  0001 C CNN
F 3 "" H 6500 3900 50  0001 C CNN
	1    6500 3900
	1    0    0    -1  
$EndComp
$Comp
L power:GND #PWR?
U 1 1 60BFF7C7
P 7100 3900
F 0 "#PWR?" H 7100 3650 50  0001 C CNN
F 1 "GND" H 7105 3727 50  0000 C CNN
F 2 "" H 7100 3900 50  0001 C CNN
F 3 "" H 7100 3900 50  0001 C CNN
	1    7100 3900
	1    0    0    -1  
$EndComp
$Comp
L power:GND #PWR?
U 1 1 60C00031
P 9300 3300
F 0 "#PWR?" H 9300 3050 50  0001 C CNN
F 1 "GND" H 9305 3127 50  0000 C CNN
F 2 "" H 9300 3300 50  0001 C CNN
F 3 "" H 9300 3300 50  0001 C CNN
	1    9300 3300
	1    0    0    -1  
$EndComp
Wire Wire Line
	7450 2550 7850 2550
Connection ~ 7450 2550
Wire Wire Line
	7450 3000 7900 3000
Wire Wire Line
	7200 3550 8150 3550
Wire Wire Line
	7200 2950 7200 3550
Wire Wire Line
	6250 2550 7450 2550
Wire Wire Line
	6700 2800 7250 2800
Wire Wire Line
	6700 2950 7200 2950
Wire Wire Line
	4800 2800 5250 2800
Wire Wire Line
	4400 2800 4800 2800
Wire Wire Line
	3200 3500 4800 3500
Wire Wire Line
	5250 2800 5600 2800
Connection ~ 5600 2800
Wire Wire Line
	5250 3500 5600 3500
Text Label 1700 2600 0    50   ~ 0
input
Wire Wire Line
	8350 3000 8850 3000
$Comp
L symbols:LT3505 U
U 1 1 60BB0A07
P 6250 2950
F 0 "U" H 6250 3531 50  0000 C CNN
F 1 "LT3505" H 6250 3440 50  0000 C CNN
F 2 "" H 5950 3300 50  0001 C CNN
F 3 "" H 5950 3300 50  0001 C CNN
	1    6250 2950
	1    0    0    -1  
$EndComp
$Comp
L Device:CP C3
U 1 1 60BB1AE2
P 6500 3750
F 0 "C3" H 6618 3796 50  0000 L CNN
F 1 "4.7pF" H 6618 3705 50  0000 L CNN
F 2 "" H 6538 3600 50  0001 C CNN
F 3 "~" H 6500 3750 50  0001 C CNN
	1    6500 3750
	1    0    0    -1  
$EndComp
$Comp
L Device:CP C4
U 1 1 60BB21BF
P 7100 3750
F 0 "C4" H 7218 3796 50  0000 L CNN
F 1 "47pF" H 7218 3705 50  0000 L CNN
F 2 "" H 7138 3600 50  0001 C CNN
F 3 "~" H 7100 3750 50  0001 C CNN
	1    7100 3750
	1    0    0    -1  
$EndComp
$Comp
L Device:CP C7
U 1 1 60BB2403
P 9300 3150
F 0 "C7" H 9418 3196 50  0000 L CNN
F 1 "10uF" H 9418 3105 50  0000 L CNN
F 2 "" H 9338 3000 50  0001 C CNN
F 3 "~" H 9300 3150 50  0001 C CNN
	1    9300 3150
	1    0    0    -1  
$EndComp
$Comp
L Device:CP C6
U 1 1 60BB28BB
P 8850 3150
F 0 "C6" H 8968 3196 50  0000 L CNN
F 1 "68pF" H 8968 3105 50  0000 L CNN
F 2 "" H 8888 3000 50  0001 C CNN
F 3 "~" H 8850 3150 50  0001 C CNN
	1    8850 3150
	1    0    0    -1  
$EndComp
Connection ~ 8850 3000
Wire Wire Line
	8850 3000 9300 3000
$Comp
L Device:CP C5
U 1 1 60BB2B1C
P 7450 2850
F 0 "C5" H 7568 2896 50  0000 L CNN
F 1 "0.1uF" H 7568 2805 50  0000 L CNN
F 2 "" H 7488 2700 50  0001 C CNN
F 3 "~" H 7450 2850 50  0001 C CNN
	1    7450 2850
	1    0    0    -1  
$EndComp
$EndSCHEMATC
